<?xml version="1.0" encoding="utf-8"?>
<!DOCTYPE eagle SYSTEM "eagle.dtd">
<eagle version="6.5.0">
<drawing>
<settings>
<setting alwaysvectorfont="no"/>
<setting verticaltext="up"/>
</settings>
<grid distance="0.1" unitdist="inch" unit="inch" style="lines" multiple="1" display="no" altdistance="0.01" altunitdist="inch" altunit="inch"/>
<layers>
<layer number="1" name="Top" color="4" fill="1" visible="yes" active="yes"/>
<layer number="2" name="Route2" color="1" fill="3" visible="no" active="yes"/>
<layer number="3" name="Route3" color="4" fill="3" visible="no" active="yes"/>
<layer number="4" name="Route4" color="1" fill="4" visible="no" active="yes"/>
<layer number="5" name="Route5" color="4" fill="4" visible="no" active="yes"/>
<layer number="6" name="Route6" color="1" fill="8" visible="no" active="yes"/>
<layer number="7" name="Route7" color="4" fill="8" visible="no" active="yes"/>
<layer number="8" name="Route8" color="1" fill="2" visible="no" active="yes"/>
<layer number="9" name="Route9" color="4" fill="2" visible="no" active="yes"/>
<layer number="10" name="Route10" color="1" fill="7" visible="no" active="yes"/>
<layer number="11" name="Route11" color="4" fill="7" visible="no" active="yes"/>
<layer number="12" name="Route12" color="1" fill="5" visible="no" active="yes"/>
<layer number="13" name="Route13" color="4" fill="5" visible="no" active="yes"/>
<layer number="14" name="Route14" color="1" fill="6" visible="no" active="yes"/>
<layer number="15" name="Route15" color="4" fill="6" visible="no" active="yes"/>
<layer number="16" name="Bottom" color="1" fill="1" visible="yes" active="yes"/>
<layer number="17" name="Pads" color="2" fill="1" visible="yes" active="yes"/>
<layer number="18" name="Vias" color="2" fill="1" visible="yes" active="yes"/>
<layer number="19" name="Unrouted" color="6" fill="1" visible="yes" active="yes"/>
<layer number="20" name="Dimension" color="15" fill="1" visible="yes" active="yes"/>
<layer number="21" name="tPlace" color="7" fill="1" visible="yes" active="yes"/>
<layer number="22" name="bPlace" color="7" fill="1" visible="yes" active="yes"/>
<layer number="23" name="tOrigins" color="15" fill="1" visible="yes" active="yes"/>
<layer number="24" name="bOrigins" color="15" fill="1" visible="yes" active="yes"/>
<layer number="25" name="tNames" color="7" fill="1" visible="yes" active="yes"/>
<layer number="26" name="bNames" color="7" fill="1" visible="yes" active="yes"/>
<layer number="27" name="tValues" color="7" fill="1" visible="yes" active="yes"/>
<layer number="28" name="bValues" color="7" fill="1" visible="yes" active="yes"/>
<layer number="29" name="tStop" color="7" fill="3" visible="no" active="yes"/>
<layer number="30" name="bStop" color="7" fill="6" visible="no" active="yes"/>
<layer number="31" name="tCream" color="7" fill="4" visible="no" active="yes"/>
<layer number="32" name="bCream" color="7" fill="5" visible="no" active="yes"/>
<layer number="33" name="tFinish" color="6" fill="3" visible="no" active="yes"/>
<layer number="34" name="bFinish" color="6" fill="6" visible="no" active="yes"/>
<layer number="35" name="tGlue" color="7" fill="4" visible="no" active="yes"/>
<layer number="36" name="bGlue" color="7" fill="5" visible="no" active="yes"/>
<layer number="37" name="tTest" color="7" fill="1" visible="no" active="yes"/>
<layer number="38" name="bTest" color="7" fill="1" visible="no" active="yes"/>
<layer number="39" name="tKeepout" color="4" fill="11" visible="yes" active="yes"/>
<layer number="40" name="bKeepout" color="1" fill="11" visible="yes" active="yes"/>
<layer number="41" name="tRestrict" color="4" fill="10" visible="yes" active="yes"/>
<layer number="42" name="bRestrict" color="1" fill="10" visible="yes" active="yes"/>
<layer number="43" name="vRestrict" color="2" fill="10" visible="yes" active="yes"/>
<layer number="44" name="Drills" color="7" fill="1" visible="no" active="yes"/>
<layer number="45" name="Holes" color="7" fill="1" visible="no" active="yes"/>
<layer number="46" name="Milling" color="3" fill="1" visible="no" active="yes"/>
<layer number="47" name="Measures" color="7" fill="1" visible="no" active="yes"/>
<layer number="48" name="Document" color="7" fill="1" visible="yes" active="yes"/>
<layer number="49" name="Reference" color="7" fill="1" visible="yes" active="yes"/>
<layer number="51" name="tDocu" color="7" fill="1" visible="yes" active="yes"/>
<layer number="52" name="bDocu" color="7" fill="1" visible="yes" active="yes"/>
<layer number="91" name="Nets" color="2" fill="1" visible="yes" active="yes"/>
<layer number="92" name="Busses" color="1" fill="1" visible="yes" active="yes"/>
<layer number="93" name="Pins" color="2" fill="1" visible="yes" active="yes"/>
<layer number="94" name="Symbols" color="4" fill="1" visible="yes" active="yes"/>
<layer number="95" name="Names" color="7" fill="1" visible="yes" active="yes"/>
<layer number="96" name="Values" color="7" fill="1" visible="yes" active="yes"/>
<layer number="97" name="Info" color="7" fill="1" visible="yes" active="yes"/>
<layer number="98" name="Guide" color="6" fill="1" visible="yes" active="yes"/>
</layers>
<library>
<packages>
<package name="MSOP12">
<description>&lt;b&gt;10-Lead Mini Small Outline Package [MSOP]&lt;/b&gt; (RM-10)&lt;p&gt;
Source: http://www.analog.com/UploadedFiles/Data_Sheets/35641221898805SSM2167_b.pdf&lt;br&gt;
COMPLIANT TO JEDEC STANDARDS MO-187BA</description>
<smd name="P3" x="-0.325" y="-2.1" dx="0.45" dy="0.95" layer="1" rot="R180"/>
<smd name="P9" x="0.325" y="2.1" dx="0.45" dy="0.95" layer="1" rot="R180"/>
<wire x1="-2" y1="-1.5" x2="-2" y2="1.5" width="0.1524" layer="21"/>
<wire x1="-2" y1="1.5" x2="2" y2="1.5" width="0.1524" layer="21"/>
<wire x1="2" y1="1.5" x2="2" y2="-1.5" width="0.1524" layer="21"/>
<wire x1="2" y1="-1.5" x2="-2" y2="-1.5" width="0.1524" layer="21"/>
<smd name="P8" x="0.975" y="2.1" dx="0.45" dy="0.95" layer="1" rot="R180"/>
<smd name="P7" x="1.625" y="2.1" dx="0.45" dy="0.95" layer="1" rot="R180"/>
<smd name="P10" x="-0.325" y="2.1" dx="0.45" dy="0.95" layer="1" rot="R180"/>
<smd name="P11" x="-0.975" y="2.1" dx="0.45" dy="0.95" layer="1" rot="R180"/>
<smd name="P12" x="-1.625" y="2.1" dx="0.45" dy="0.95" layer="1" rot="R180"/>
<smd name="P2" x="-0.975" y="-2.1" dx="0.45" dy="0.95" layer="1" rot="R180"/>
<smd name="P1" x="-1.625" y="-2.1" dx="0.45" dy="0.95" layer="1" rot="R180"/>
<smd name="P4" x="0.325" y="-2.1" dx="0.45" dy="0.95" layer="1" rot="R180"/>
<smd name="P5" x="0.975" y="-2.1" dx="0.45" dy="0.95" layer="1" rot="R180"/>
<smd name="P6" x="1.625" y="-2.1" dx="0.45" dy="0.95" layer="1" rot="R180"/>
<circle x="-1.3" y="-0.8" radius="0.282840625" width="0.2038" layer="21"/>
<rectangle x1="-2.8" y1="-1.4" x2="-2.2" y2="-0.2" layer="21"/>
<text x="3.9" y="-2.8" size="1.27" layer="21" ratio="15" rot="R90">&gt;NAME</text>
<wire x1="-2.5" y1="-2.9" x2="2.4" y2="-2.9" width="0.1524" layer="21"/>
<wire x1="2.4" y1="-2.9" x2="2.4" y2="2.9" width="0.1524" layer="21"/>
<wire x1="2.4" y1="2.9" x2="-2.5" y2="2.9" width="0.1524" layer="21"/>
<wire x1="-2.5" y1="-2.9" x2="-2.5" y2="-1.6" width="0.1524" layer="21"/>
<wire x1="-2.5" y1="0" x2="-2.5" y2="2.9" width="0.1524" layer="21"/>
<smd name="P13" x="0" y="0" dx="2.9" dy="1.65" layer="1"/>
</package>
</packages>
<symbols>
<symbol name="VREG_LTC3122">
<pin name="1.SW" x="-20.32" y="10.16" length="middle"/>
<pin name="2.PGND" x="-20.32" y="-12.7" length="middle"/>
<pin name="3.VIN" x="-20.32" y="5.08" length="middle"/>
<pin name="4.PWM/SYNC" x="-20.32" y="0" length="middle"/>
<pin name="5.VCC" x="-20.32" y="-5.08" length="middle"/>
<pin name="6.RT" x="-20.32" y="-2.54" length="middle"/>
<pin name="7.VC" x="20.32" y="-10.16" length="middle" rot="R180"/>
<pin name="8.FB" x="20.32" y="-7.62" length="middle" rot="R180"/>
<pin name="9.!SD" x="-20.32" y="2.54" length="middle"/>
<pin name="10.SGND" x="-20.32" y="-10.16" length="middle"/>
<pin name="11.VOUT" x="20.32" y="10.16" length="middle" rot="R180"/>
<pin name="12.CAP" x="20.32" y="-2.54" length="middle" rot="R180"/>
<pin name="13.PGND" x="-20.32" y="-15.24" length="middle"/>
<wire x1="-15.24" y1="15.24" x2="-15.24" y2="-20.32" width="0.254" layer="94"/>
<wire x1="-15.24" y1="-20.32" x2="15.24" y2="-20.32" width="0.254" layer="94"/>
<wire x1="15.24" y1="-20.32" x2="15.24" y2="15.24" width="0.254" layer="94"/>
<wire x1="15.24" y1="15.24" x2="-15.24" y2="15.24" width="0.254" layer="94"/>
<text x="-15.24" y="17.78" size="1.778" layer="95">&gt;NAME</text>
<text x="-15.24" y="20.32" size="1.778" layer="95">&gt;VALUE</text>
</symbol>
<symbol name="VREG_LT3759">
<pin name="1.VC" x="-20.32" y="-12.7" length="middle"/>
<pin name="2.FBX" x="20.32" y="-10.16" length="middle" rot="R180"/>
<pin name="3.SS" x="-20.32" y="-10.16" length="middle"/>
<pin name="4.RT" x="-20.32" y="-7.62" length="middle"/>
<pin name="5.SYNC" x="-20.32" y="-5.08" length="middle"/>
<pin name="6.!PGOOD" x="20.32" y="10.16" length="middle" rot="R180"/>
<pin name="7.SENSE" x="20.32" y="0" length="middle" rot="R180"/>
<pin name="8.GATE" x="20.32" y="5.08" length="middle" rot="R180"/>
<pin name="9.INTVCC" x="20.32" y="-12.7" length="middle" rot="R180"/>
<pin name="10.DRIVE" x="20.32" y="15.24" length="middle" rot="R180"/>
<pin name="11.VIN" x="-20.32" y="15.24" length="middle"/>
<pin name="12.EN/UVLO" x="-20.32" y="5.08" length="middle"/>
<pin name="13.GND" x="-20.32" y="-15.24" length="middle"/>
<wire x1="-15.24" y1="20.32" x2="-15.24" y2="-20.32" width="0.254" layer="94"/>
<wire x1="-15.24" y1="-20.32" x2="15.24" y2="-20.32" width="0.254" layer="94"/>
<wire x1="15.24" y1="-20.32" x2="15.24" y2="20.32" width="0.254" layer="94"/>
<wire x1="15.24" y1="20.32" x2="-15.24" y2="20.32" width="0.254" layer="94"/>
<text x="-15.24" y="20.32" size="1.778" layer="95">&gt;NAME</text>
<text x="-15.24" y="-22.86" size="1.778" layer="95">&gt;VALUE</text>
</symbol>
</symbols>
<devicesets>
<deviceset name="VREG_LTC3122">
<gates>
<gate name="G$1" symbol="VREG_LTC3122" x="0" y="0"/>
</gates>
<devices>
<device name="_MSOP12" package="MSOP12">
<connects>
<connect gate="G$1" pin="1.SW" pad="P1"/>
<connect gate="G$1" pin="10.SGND" pad="P10"/>
<connect gate="G$1" pin="11.VOUT" pad="P11"/>
<connect gate="G$1" pin="12.CAP" pad="P12"/>
<connect gate="G$1" pin="13.PGND" pad="P13"/>
<connect gate="G$1" pin="2.PGND" pad="P2"/>
<connect gate="G$1" pin="3.VIN" pad="P3"/>
<connect gate="G$1" pin="4.PWM/SYNC" pad="P4"/>
<connect gate="G$1" pin="5.VCC" pad="P5"/>
<connect gate="G$1" pin="6.RT" pad="P6"/>
<connect gate="G$1" pin="7.VC" pad="P7"/>
<connect gate="G$1" pin="8.FB" pad="P8"/>
<connect gate="G$1" pin="9.!SD" pad="P9"/>
</connects>
<technologies>
<technology name=""/>
</technologies>
</device>
</devices>
</deviceset>
<deviceset name="VREG_LT3759">
<gates>
<gate name="G$1" symbol="VREG_LT3759" x="0" y="0"/>
</gates>
<devices>
<device name="_MSOP12" package="MSOP12">
<connects>
<connect gate="G$1" pin="1.VC" pad="P1"/>
<connect gate="G$1" pin="10.DRIVE" pad="P10"/>
<connect gate="G$1" pin="11.VIN" pad="P11"/>
<connect gate="G$1" pin="12.EN/UVLO" pad="P12"/>
<connect gate="G$1" pin="13.GND" pad="P13"/>
<connect gate="G$1" pin="2.FBX" pad="P2"/>
<connect gate="G$1" pin="3.SS" pad="P3"/>
<connect gate="G$1" pin="4.RT" pad="P4"/>
<connect gate="G$1" pin="5.SYNC" pad="P5"/>
<connect gate="G$1" pin="6.!PGOOD" pad="P6"/>
<connect gate="G$1" pin="7.SENSE" pad="P7"/>
<connect gate="G$1" pin="8.GATE" pad="P8"/>
<connect gate="G$1" pin="9.INTVCC" pad="P9"/>
</connects>
<technologies>
<technology name=""/>
</technologies>
</device>
</devices>
</deviceset>
</devicesets>
</library>
</drawing>
</eagle>
