<?xml version="1.0" encoding="utf-8"?>
<!DOCTYPE eagle SYSTEM "eagle.dtd">
<eagle version="6.5.0">
<drawing>
<settings>
<setting alwaysvectorfont="no"/>
<setting verticaltext="up"/>
</settings>
<grid distance="0.1" unitdist="inch" unit="inch" style="lines" multiple="1" display="no" altdistance="0.01" altunitdist="inch" altunit="inch"/>
<layers>
<layer number="1" name="Top" color="4" fill="1" visible="yes" active="yes"/>
<layer number="2" name="Route2" color="1" fill="3" visible="no" active="yes"/>
<layer number="3" name="Route3" color="4" fill="3" visible="no" active="yes"/>
<layer number="4" name="Route4" color="1" fill="4" visible="no" active="yes"/>
<layer number="5" name="Route5" color="4" fill="4" visible="no" active="yes"/>
<layer number="6" name="Route6" color="1" fill="8" visible="no" active="yes"/>
<layer number="7" name="Route7" color="4" fill="8" visible="no" active="yes"/>
<layer number="8" name="Route8" color="1" fill="2" visible="no" active="yes"/>
<layer number="9" name="Route9" color="4" fill="2" visible="no" active="yes"/>
<layer number="10" name="Route10" color="1" fill="7" visible="no" active="yes"/>
<layer number="11" name="Route11" color="4" fill="7" visible="no" active="yes"/>
<layer number="12" name="Route12" color="1" fill="5" visible="no" active="yes"/>
<layer number="13" name="Route13" color="4" fill="5" visible="no" active="yes"/>
<layer number="14" name="Route14" color="1" fill="6" visible="no" active="yes"/>
<layer number="15" name="Route15" color="4" fill="6" visible="no" active="yes"/>
<layer number="16" name="Bottom" color="1" fill="1" visible="yes" active="yes"/>
<layer number="17" name="Pads" color="2" fill="1" visible="yes" active="yes"/>
<layer number="18" name="Vias" color="2" fill="1" visible="yes" active="yes"/>
<layer number="19" name="Unrouted" color="6" fill="1" visible="yes" active="yes"/>
<layer number="20" name="Dimension" color="15" fill="1" visible="yes" active="yes"/>
<layer number="21" name="tPlace" color="7" fill="1" visible="yes" active="yes"/>
<layer number="22" name="bPlace" color="7" fill="1" visible="yes" active="yes"/>
<layer number="23" name="tOrigins" color="15" fill="1" visible="yes" active="yes"/>
<layer number="24" name="bOrigins" color="15" fill="1" visible="yes" active="yes"/>
<layer number="25" name="tNames" color="7" fill="1" visible="yes" active="yes"/>
<layer number="26" name="bNames" color="7" fill="1" visible="yes" active="yes"/>
<layer number="27" name="tValues" color="7" fill="1" visible="yes" active="yes"/>
<layer number="28" name="bValues" color="7" fill="1" visible="yes" active="yes"/>
<layer number="29" name="tStop" color="7" fill="3" visible="no" active="yes"/>
<layer number="30" name="bStop" color="7" fill="6" visible="no" active="yes"/>
<layer number="31" name="tCream" color="7" fill="4" visible="no" active="yes"/>
<layer number="32" name="bCream" color="7" fill="5" visible="no" active="yes"/>
<layer number="33" name="tFinish" color="6" fill="3" visible="no" active="yes"/>
<layer number="34" name="bFinish" color="6" fill="6" visible="no" active="yes"/>
<layer number="35" name="tGlue" color="7" fill="4" visible="no" active="yes"/>
<layer number="36" name="bGlue" color="7" fill="5" visible="no" active="yes"/>
<layer number="37" name="tTest" color="7" fill="1" visible="no" active="yes"/>
<layer number="38" name="bTest" color="7" fill="1" visible="no" active="yes"/>
<layer number="39" name="tKeepout" color="4" fill="11" visible="yes" active="yes"/>
<layer number="40" name="bKeepout" color="1" fill="11" visible="yes" active="yes"/>
<layer number="41" name="tRestrict" color="4" fill="10" visible="yes" active="yes"/>
<layer number="42" name="bRestrict" color="1" fill="10" visible="yes" active="yes"/>
<layer number="43" name="vRestrict" color="2" fill="10" visible="yes" active="yes"/>
<layer number="44" name="Drills" color="7" fill="1" visible="no" active="yes"/>
<layer number="45" name="Holes" color="7" fill="1" visible="no" active="yes"/>
<layer number="46" name="Milling" color="3" fill="1" visible="no" active="yes"/>
<layer number="47" name="Measures" color="7" fill="1" visible="no" active="yes"/>
<layer number="48" name="Document" color="7" fill="1" visible="yes" active="yes"/>
<layer number="49" name="Reference" color="7" fill="1" visible="yes" active="yes"/>
<layer number="51" name="tDocu" color="7" fill="1" visible="yes" active="yes"/>
<layer number="52" name="bDocu" color="7" fill="1" visible="yes" active="yes"/>
<layer number="91" name="Nets" color="2" fill="1" visible="yes" active="yes"/>
<layer number="92" name="Busses" color="1" fill="1" visible="yes" active="yes"/>
<layer number="93" name="Pins" color="2" fill="1" visible="yes" active="yes"/>
<layer number="94" name="Symbols" color="4" fill="1" visible="yes" active="yes"/>
<layer number="95" name="Names" color="7" fill="1" visible="yes" active="yes"/>
<layer number="96" name="Values" color="7" fill="1" visible="yes" active="yes"/>
<layer number="97" name="Info" color="7" fill="1" visible="yes" active="yes"/>
<layer number="98" name="Guide" color="6" fill="1" visible="yes" active="yes"/>
</layers>
<library>
<packages>
<package name="BUCK_PTH08080W">
<wire x1="0" y1="0" x2="0" y2="12.7" width="0.1524" layer="21"/>
<wire x1="0" y1="12.7" x2="15.24" y2="12.7" width="0.1524" layer="21"/>
<wire x1="15.24" y1="12.7" x2="15.24" y2="0" width="0.1524" layer="21"/>
<wire x1="15.24" y1="0" x2="0" y2="0" width="0.1524" layer="21"/>
<pad name="P3" x="1.524" y="2.794" drill="1.27" diameter="2.286"/>
<pad name="P2" x="1.524" y="6.35" drill="1.27" diameter="2.286"/>
<pad name="P1" x="1.524" y="9.906" drill="1.27" diameter="2.286"/>
<pad name="P5" x="13.716" y="11.176" drill="1.27" diameter="2.286"/>
<pad name="P4" x="13.716" y="1.524" drill="1.27" diameter="2.286"/>
<text x="5.08" y="7.62" size="1.27" layer="21" ratio="15">&gt;NAME</text>
<text x="5.08" y="5.08" size="1.27" layer="21" ratio="15">&gt;VALUE</text>
</package>
<package name="BOOST_PTN04050C">
<pad name="P4" x="2.032" y="2.032" drill="1.524"/>
<wire x1="0" y1="0" x2="0" y2="13.589" width="0.1524" layer="21"/>
<wire x1="0" y1="13.589" x2="23.114" y2="13.589" width="0.1524" layer="21"/>
<wire x1="23.114" y1="13.589" x2="23.114" y2="0" width="0.1524" layer="21"/>
<wire x1="23.114" y1="0" x2="0" y2="0" width="0.1524" layer="21"/>
<pad name="P1" x="21.082" y="2.032" drill="1.524"/>
<pad name="P2" x="21.082" y="8.382" drill="1.524"/>
<pad name="P3" x="2.032" y="11.557" drill="1.524"/>
<text x="7.62" y="7.62" size="1.27" layer="21" ratio="15">&gt;NAME</text>
<text x="7.62" y="5.08" size="1.27" layer="21" ratio="15">&gt;VALUE</text>
</package>
</packages>
<symbols>
<symbol name="BUCK_PTH08080W">
<pin name="1.VIN" x="-17.78" y="7.62" length="middle"/>
<pin name="3.VOUT" x="17.78" y="7.62" length="middle" rot="R180"/>
<pin name="5.!INHIBIT" x="-17.78" y="5.08" length="middle"/>
<pin name="2.GND" x="-17.78" y="-7.62" length="middle"/>
<pin name="4.ADJUST" x="-17.78" y="2.54" length="middle"/>
<wire x1="-12.7" y1="10.16" x2="-12.7" y2="-10.16" width="0.254" layer="94"/>
<wire x1="-12.7" y1="-10.16" x2="12.7" y2="-10.16" width="0.254" layer="94"/>
<wire x1="12.7" y1="-10.16" x2="12.7" y2="10.16" width="0.254" layer="94"/>
<wire x1="12.7" y1="10.16" x2="-12.7" y2="10.16" width="0.254" layer="94"/>
<text x="-12.7" y="12.7" size="1.778" layer="95">&gt;NAME</text>
<text x="-12.7" y="10.16" size="1.778" layer="95">&gt;VALUE</text>
</symbol>
<symbol name="BOOST_PTN04050C">
<pin name="2.VIN" x="-17.78" y="5.08" length="middle"/>
<pin name="4.VOUT" x="17.78" y="5.08" length="middle" rot="R180"/>
<pin name="3.ADJUST" x="-17.78" y="2.54" length="middle"/>
<pin name="1.GND" x="-17.78" y="-7.62" length="middle"/>
<wire x1="-12.7" y1="7.62" x2="-12.7" y2="-10.16" width="0.254" layer="94"/>
<wire x1="-12.7" y1="-10.16" x2="12.7" y2="-10.16" width="0.254" layer="94"/>
<wire x1="12.7" y1="-10.16" x2="12.7" y2="7.62" width="0.254" layer="94"/>
<wire x1="12.7" y1="7.62" x2="-12.7" y2="7.62" width="0.254" layer="94"/>
<text x="-12.7" y="10.16" size="1.778" layer="95">&gt;NAME</text>
<text x="-12.7" y="7.62" size="1.778" layer="95">&gt;VALUE</text>
</symbol>
</symbols>
<devicesets>
<deviceset name="BUCK_PTH08080W">
<gates>
<gate name="G$1" symbol="BUCK_PTH08080W" x="0" y="0"/>
</gates>
<devices>
<device name="" package="BUCK_PTH08080W">
<connects>
<connect gate="G$1" pin="1.VIN" pad="P1"/>
<connect gate="G$1" pin="2.GND" pad="P2"/>
<connect gate="G$1" pin="3.VOUT" pad="P3"/>
<connect gate="G$1" pin="4.ADJUST" pad="P4"/>
<connect gate="G$1" pin="5.!INHIBIT" pad="P5"/>
</connects>
<technologies>
<technology name=""/>
</technologies>
</device>
</devices>
</deviceset>
<deviceset name="BOOST_PTN04050C">
<gates>
<gate name="G$1" symbol="BOOST_PTN04050C" x="0" y="0"/>
</gates>
<devices>
<device name="" package="BOOST_PTN04050C">
<connects>
<connect gate="G$1" pin="1.GND" pad="P1"/>
<connect gate="G$1" pin="2.VIN" pad="P2"/>
<connect gate="G$1" pin="3.ADJUST" pad="P3"/>
<connect gate="G$1" pin="4.VOUT" pad="P4"/>
</connects>
<technologies>
<technology name=""/>
</technologies>
</device>
</devices>
</deviceset>
</devicesets>
</library>
</drawing>
</eagle>
